Project: Spatial Bros
…
childcare_sp_point <- read_csv("data/geospatial/Childcare Centres Spatial Point/childcare-centres.csv")

Rows: 29 Columns: 6
── Column specification ────────────────────────────────────────────────────────
Delimiter: ","
chr (3): name, contact_ph, url
dbl (3): ref, lat, lon

ℹ Use `spec()` to retrieve the full column specification for this data.
ℹ Specify the column types or set `show_col_types = FALSE` to quiet this message.

list(childcare_sp_point) 

[[1]]
# A tibble: 29 × 6
      ref name                                         conta…¹ url     lat   lon
    <dbl> <chr>                                        <chr>   <chr> <dbl> <dbl>
 1 109894 Early Learning Centre                        03 986… http… -37.8  145.
 2 109351 University Of Melbourne Child Care           03 903… http… -37.8  145.
 3 617536 Hotham Hub Children's Centre                 03 965… <NA>  -37.8  145.
 4 711265 Kids Club Collins Street Early Learning Cen… <NA>    <NA>  -37.8  145.
 5 619559 The Harbour Family and Childrens Centre      03 862… http… -37.8  145.
 6 592707 Goodstart Early Learning Melbourne Flinders… 03 967… http… -37.8  145.
 7 104202 MAMA Midwives and Mothers Australia          03 937… http… -37.8  145.
 8 627399 Only About Children                          03 992… <NA>  -37.8  145.
 9 101064 Yarra Park Children's Centre                 9428 0… http… -37.8  145.
10 563554 Kensington Community Children's Co-Operative 03 937… http… -37.8  145.
# … with 19 more rows, and abbreviated variable name ¹​contact_ph
…
public_toilets_sp_point <- read_csv("data/geospatial/Public Toilets Spatial Point/public-toilets.csv")

Rows: 74 Columns: 8
── Column specification ────────────────────────────────────────────────────────
Delimiter: ","
chr (6): name, female, male, wheelchair, operator, baby_facil
dbl (2): lat, lon

ℹ Use `spec()` to retrieve the full column specification for this data.
ℹ Specify the column types or set `show_col_types = FALSE` to quiet this message.

list(public_toilets_sp_point) 

[[1]]
# A tibble: 74 × 8
   name                         female male  wheel…¹ opera…² baby_…³   lat   lon
   <chr>                        <chr>  <chr> <chr>   <chr>   <chr>   <dbl> <dbl>
 1 Public Toilet - Toilet 140 … no     yes   no      City o… no      -37.8  145.
 2 Public Toilet - Toilet 6 - … yes    no    no      City o… no      -37.8  145.
 3 Public Toilet - Toilet 142 … no     yes   no      City o… no      -37.8  145.
 4 Public Toilet - Royal Park … yes    yes   no      City o… no      -37.8  145.
 5 Public Toilet - Toilet 177 … yes    yes   yes     City o… no      -37.8  145.
 6 Public Toilet - Toilet 118 … yes    yes   yes     City o… no      -37.8  145.
 7 Public Toilet - Toilet 34 -… yes    yes   yes     City o… no      -37.8  145.
 8 Public Toilet - Town Hall M… yes    yes   yes     City o… yes     -37.8  145.
 9 Public Toilet - Toilet 131 … yes    yes   yes     City o… no      -37.8  145.
10 Public Toilet - Toilet 146 … yes    no    no      City o… no      -37.8  145.
# … with 64 more rows, and abbreviated variable names ¹​wheelchair, ²​operator,
#   ³​baby_facil
…
